3 Tidy | The Tidyverse Cookbook
…
You can also create a tibble with tibble(), whose syntax mirrors data.frame():

tibble(number = c(1, 2, 3), 
       letter = c("a", "b", "c"),
       greek = c("alpha", "beta", "gamma"))

3.2 Convert a data frame to a tibble

You want to convert a data frame to a tibble.

Solution

as_tibble(iris)

## # A tibble: 150 x 5
##    Sepal.Length Sepal.Width Petal.Length Petal.Width Species
##           <dbl>       <dbl>        <dbl>       <dbl> <fct>  
##  1          5.1         3.5          1.4         0.2 setosa 
##  2          4.9         3            1.4         0.2 setosa 
##  3          4.7         3.2          1.3         0.2 setosa 
##  4          4.6         3.1          1.5         0.2 setosa 
##  5          5           3.6          1.4         0.2 setosa 
##  6          5.4         3.9          1.7         0.4 setosa 
##  7          4.6         3.4          1.4         0.3 setosa 
##  8          5           3.4          1.5         0.2 setosa 
##  9          4.4         2.9          1.4         0.2 setosa 
## 10          4.9         3.1          1.5         0.1 setosa 
## # ... with 140 more rows
…
Discussion

Be careful to use as.data.frame() and not as_data_frame(), which is an alias for as_tibble().

3.4 Preview the contents of a tibble

You want to get an idea of what variables and values are stored in a tibble.

Solution

storms

## # A tibble: 10,010 x 13
##    name   year month   day  hour   lat  long status category  wind pressure
##    <chr> <dbl> <dbl> <int> <dbl> <dbl> <dbl> <chr>  <ord>    <int>    <int>
##  1 Amy    1975     6    27     0  27.5 -79   tropi… -1          25     1013
##  2 Amy    1975     6    27     6  28.5 -79   tropi… -1          25     1013
##  3 Amy    1975     6    27    12  29.5 -79   tropi… -1          25     1013
##  4 Amy    1975     6    27    18  30.5 -79   tropi… -1          25     1013
##  5 Amy    1975     6    28     0  31.5 -78.8 tropi… -1          25     1012
##  6 Amy    1975     6    28     6  32.4 -78.7 tropi… -1          25     1012
##  7 Amy    1975     6    28    12  33.3 -78   tropi… -1          25     1011
##  8 Amy    1975     6    28    18  34   -77   tropi… -1          30     1006
##  9 Amy    1975     6    29     0  34.4 -75.8 tropi… 0           35     1004
## 10 Amy    1975     6    29     6  34   -74.8 tropi… 0           40     1002
## # ... with 10,000 more rows, and 2 more variables: ts_diameter <dbl>,
## #   hu_diameter <dbl>
…
