4 Transform Tables | The Tidyverse Cookbook
…
Solution

mpg %>% 
  arrange(displ)

## # A tibble: 234 x 11
##    manufacturer model displ  year   cyl trans drv     cty   hwy fl    class
##    <chr>        <chr> <dbl> <int> <int> <chr> <chr> <int> <int> <chr> <chr>
##  1 honda        civic   1.6  1999     4 manu… f        28    33 r     subc…
##  2 honda        civic   1.6  1999     4 auto… f        24    32 r     subc…
##  3 honda        civic   1.6  1999     4 manu… f        25    32 r     subc…
##  4 honda        civic   1.6  1999     4 manu… f        23    29 p     subc…
##  5 honda        civic   1.6  1999     4 auto… f        24    32 r     subc…
##  6 audi         a4      1.8  1999     4 auto… f        18    29 p     comp…
##  7 audi         a4      1.8  1999     4 manu… f        21    29 p     comp…
##  8 audi         a4 q…   1.8  1999     4 manu… 4        18    26 p     comp…
##  9 audi         a4 q…   1.8  1999     4 auto… 4        16    25 p     comp…
## 10 honda        civic   1.8  2008     4 manu… f        26    34 r     subc…
## # … with 224 more rows

Discussion

arrange() sorts the rows according to the values of the specified column, with the lowest values appearing near the top of the data frame. If you provide additional column names, arrange() will use the additional columns in order as tiebreakers to sort within rows that share the same value of the first column.

mpg %>% 
  arrange(displ, cty)

## # A tibble: 234 x 11
##    manufacturer model displ  year   cyl trans drv     cty   hwy fl    class
##    <chr>        <chr> <dbl> <int> <int> <chr> <chr> <int> <int> <chr> <chr>
##  1 honda        civic   1.6  1999     4 manu… f        23    29 p     subc…
##  2 honda        civic   1.6  1999     4 auto… f        24    32 r     subc…
##  3 honda        civic   1.6  1999     4 auto… f        24    32 r     subc…
##  4 honda        civic   1.6  1999     4 manu… f        25    32 r     subc…
##  5 honda        civic   1.6  1999     4 manu… f        28    33 r     subc…
##  6 audi         a4 q…   1.8  1999     4 auto… 4        16    25 p     comp…
##  7 audi         a4      1.8  1999     4 auto… f        18    29 p     comp…
##  8 audi         a4 q…   1.8  1999     4 manu… 4        18    26 p     comp…
##  9 volkswagen   pass…   1.8  1999     4 auto… f        18    29 p     mids…
## 10 audi         a4      1.8  1999     4 manu… f        21    29 p     comp…
## # … with 224 more rows
…
Solution

mpg %>% 
  arrange(desc(displ))

## # A tibble: 234 x 11
##    manufacturer model displ  year   cyl trans drv     cty   hwy fl    class
##    <chr>        <chr> <dbl> <int> <int> <chr> <chr> <int> <int> <chr> <chr>
##  1 chevrolet    corv…   7    2008     8 manu… r        15    24 p     2sea…
##  2 chevrolet    k150…   6.5  1999     8 auto… 4        14    17 d     suv  
##  3 chevrolet    corv…   6.2  2008     8 manu… r        16    26 p     2sea…
##  4 chevrolet    corv…   6.2  2008     8 auto… r        15    25 p     2sea…
##  5 jeep         gran…   6.1  2008     8 auto… 4        11    14 p     suv  
##  6 chevrolet    c150…   6    2008     8 auto… r        12    17 r     suv  
##  7 dodge        dura…   5.9  1999     8 auto… 4        11    15 r     suv  
##  8 dodge        ram …   5.9  1999     8 auto… 4        11    15 r     pick…
##  9 chevrolet    c150…   5.7  1999     8 auto… r        13    17 r     suv  
## 10 chevrolet    corv…   5.7  1999     8 manu… r        16    26 p     2sea…
## # … with 224 more rows

Discussion

Place desc() around a column name to cause arrange() to sort by descending values of that column. You can use desc() for tie-breaker columns as well (compare line nine below to the table above).

mpg %>% 
  arrange(desc(displ), desc(cty))

## # A tibble: 234 x 11
##    manufacturer model displ  year   cyl trans drv     cty   hwy fl    class
##    <chr>        <chr> <dbl> <int> <int> <chr> <chr> <int> <int> <chr> <chr>
##  1 chevrolet    corv…   7    2008     8 manu… r        15    24 p     2sea…
##  2 chevrolet    k150…   6.5  1999     8 auto… 4        14    17 d     suv  
##  3 chevrolet    corv…   6.2  2008     8 manu… r        16    26 p     2sea…
##  4 chevrolet    corv…   6.2  2008     8 auto… r        15    25 p     2sea…
##  5 jeep         gran…   6.1  2008     8 auto… 4        11    14 p     suv  
##  6 chevrolet    c150…   6    2008     8 auto… r        12    17 r     suv  
##  7 dodge        dura…   5.9  1999     8 auto… 4        11    15 r     suv  
##  8 dodge        ram …   5.9  1999     8 auto… 4        11    15 r     pick…
##  9 chevrolet    corv…   5.7  1999     8 manu… r        16    26 p     2sea…
## 10 chevrolet    corv…   5.7  1999     8 auto… r        15    23 p     2sea…
## # … with 224 more rows
…
