The Tidyverse Cookbook
…
Update the tidyverse package before running tidyverse_packages() to receive the most current list.

1.8 Combine functions into a pipe

You want to chain multiple functions together to be run in sequence, with each function operating on the preceeding function’s output.

Solution

starwars %>% 
  group_by(species) %>% 
  summarise(avg_height = mean(height, na.rm = TRUE)) %>% 
  arrange(avg_height)

## # A tibble: 38 x 2
##    species        avg_height
##    <chr>               <dbl>
##  1 Yoda's species         66
##  2 Aleena                 79
##  3 Ewok                   88
##  4 Vulptereen             94
##  5 Dug                   112
##  6 Xexto                 122
##  7 Toydarian             137
##  8 Droid                 140
##  9 Sullustan             160
## 10 <NA>                  160
## # ... with 28 more rows
…
