The Tidyverse Cookbook
…
What you should know before you begin

Tidyverse functions that transform tables do not transform your original table, which is preserved in its original form under its original name. Tidyverse functions instead return a modified copy of the table, which can be passed to the next function in a pipe, or assigned to a name for later use.

4.1 Arrange rows in ascending order by the values of a column

You want to sort the rows of a data frame in ascending order by the values in one or more columns.

Solution

mpg %>% 
  arrange(cty)

## # A tibble: 234 x 11
##    manufacturer model displ  year   cyl trans drv     cty   hwy fl    cla…
##    <chr>        <chr> <dbl> <int> <int> <chr> <chr> <int> <int> <chr> <ch>
##  1 dodge        dako…   4.7  2008     8 auto… 4         9    12 e     pic…
##  2 dodge        dura…   4.7  2008     8 auto… 4         9    12 e     suv 
##  3 dodge        ram …   4.7  2008     8 auto… 4         9    12 e     pic…
##  4 dodge        ram …   4.7  2008     8 manu… 4         9    12 e     pic…
##  5 jeep         gran…   4.7  2008     8 auto… 4         9    12 e     suv 
##  6 chevrolet    c150…   5.3  2008     8 auto… r        11    15 e     suv 
##  7 chevrolet    k150…   5.3  2008     8 auto… 4        11    14 e     suv 
##  8 chevrolet    k150…   5.7  1999     8 auto… 4        11    15 r     suv 
##  9 dodge        cara…   3.3  2008     6 auto… f        11    17 e     min…
## 10 dodge        dako…   5.2  1999     8 manu… 4        11    17 r     pic…
## # ... with 224 more rows

Discussion

arrange() sorts the rows according to the values of the specified column, with the lowest values appearing near the top of the data frame. arrange() will use additional columns as tiebreakers to sort within rows that share the same value of the first column.

mpg %>% 
  arrange(cty, hwy)

## # A tibble: 234 x 11
##    manufacturer model displ  year   cyl trans drv     cty   hwy fl    cla…
##    <chr>        <chr> <dbl> <int> <int> <chr> <chr> <int> <int> <chr> <ch>
##  1 dodge        dako…   4.7  2008     8 auto… 4         9    12 e     pic…
##  2 dodge        dura…   4.7  2008     8 auto… 4         9    12 e     suv 
##  3 dodge        ram …   4.7  2008     8 auto… 4         9    12 e     pic…
##  4 dodge        ram …   4.7  2008     8 manu… 4         9    12 e     pic…
##  5 jeep         gran…   4.7  2008     8 auto… 4         9    12 e     suv 
##  6 chevrolet    k150…   5.3  2008     8 auto… 4        11    14 e     suv 
##  7 jeep         gran…   6.1  2008     8 auto… 4        11    14 p     suv 
##  8 chevrolet    c150…   5.3  2008     8 auto… r        11    15 e     suv 
##  9 chevrolet    k150…   5.7  1999     8 auto… 4        11    15 r     suv 
## 10 dodge        dako…   5.2  1999     8 auto… 4        11    15 r     pic…
## # ... with 224 more rows

4.2 Arrange rows in descending order by the values of a column

You want to sort the rows of a data frame in descending order by the values in one or more columns.

Solution

mpg %>% 
  arrange(desc(cty))

## # A tibble: 234 x 11
##    manufacturer model displ  year   cyl trans drv     cty   hwy fl    cla…
##    <chr>        <chr> <dbl> <int> <int> <chr> <chr> <int> <int> <chr> <ch>
##  1 volkswagen   new …   1.9  1999     4 manu… f        35    44 d     sub…
##  2 volkswagen   jetta   1.9  1999     4 manu… f        33    44 d     com…
##  3 volkswagen   new …   1.9  1999     4 auto… f        29    41 d     sub…
##  4 honda        civic   1.6  1999     4 manu… f        28    33 r     sub…
##  5 toyota       coro…   1.8  2008     4 manu… f        28    37 r     com…
##  6 honda        civic   1.8  2008     4 manu… f        26    34 r     sub…
##  7 toyota       coro…   1.8  1999     4 manu… f        26    35 r     com…
##  8 toyota       coro…   1.8  2008     4 auto… f        26    35 r     com…
##  9 honda        civic   1.6  1999     4 manu… f        25    32 r     sub…
## 10 honda        civic   1.8  2008     4 auto… f        25    36 r     sub…
## # ... with 224 more rows

Discussion

Place desc() around a column name to cause arrange() to sort by descending values of that column. You can use desc() for tie-breaker columns as well.

mpg %>% 
  arrange(cty, desc(hwy))

## # A tibble: 234 x 11
##    manufacturer model displ  year   cyl trans drv     cty   hwy fl    cla…
##    <chr>        <chr> <dbl> <int> <int> <chr> <chr> <int> <int> <chr> <ch>
##  1 dodge        dako…   4.7  2008     8 auto… 4         9    12 e     pic…
##  2 dodge        dura…   4.7  2008     8 auto… 4         9    12 e     suv 
##  3 dodge        ram …   4.7  2008     8 auto… 4         9    12 e     pic…
##  4 dodge        ram …   4.7  2008     8 manu… 4         9    12 e     pic…
##  5 jeep         gran…   4.7  2008     8 auto… 4         9    12 e     suv 
##  6 dodge        cara…   3.3  2008     6 auto… f        11    17 e     min…
##  7 dodge        dako…   5.2  1999     8 manu… 4        11    17 r     pic…
##  8 ford         expe…   4.6  1999     8 auto… r        11    17 r     suv 
##  9 ford         expe…   5.4  1999     8 auto… r        11    17 r     suv 
## 10 lincoln      navi…   5.4  1999     8 auto… r        11    17 r     suv 
## # ... with 224 more rows
…
A function that transforms the structure of the data frame to add or remove rows or columns. This function transforms a table.

A function that transforms the values that appear in the data frame to create new values to place in a new row or column. This function transforms a data vector.

A function that mediates between 1 and 2 if the values are embedded in a list-column, which is a list.

The most concise way to learn how to combine these functions is to learn about the functions in isolation, and to then have the functions call each other as necessary.

4.17.1 An Example

mtcars contains performance data for 32 cars.1

mtcars

## # A tibble: 32 x 5
##      mpg   cyl  disp    hp  drat
##  * <dbl> <dbl> <dbl> <dbl> <dbl>
##  1  21       6  160    110  3.9 
##  2  21       6  160    110  3.9 
##  3  22.8     4  108     93  3.85
##  4  21.4     6  258    110  3.08
##  5  18.7     8  360    175  3.15
##  6  18.1     6  225    105  2.76
##  7  14.3     8  360    245  3.21
##  8  24.4     4  147.    62  3.69
##  9  22.8     4  141.    95  3.92
## 10  19.2     6  168.   123  3.92
## # ... with 22 more rows
To round the mpg value for each car, you would need two functions:

round() which can round the values of the data vector stored in mtcars$mpg.2

round(mtcars$mpg)

##  [1] 21 21 23 21 19 18 14 24 23 19 18 16 17 15 10 10 15 32 30 34 22 16 15
## [24] 13 19 27 26 30 16 20 15 21

mutate() which can add the results to a copy of the mtcars table.

mtcars %>% 
  mutate(mpg_int = round(mpg))

## # A tibble: 32 x 6
##      mpg   cyl  disp    hp  drat mpg_int
##    <dbl> <dbl> <dbl> <dbl> <dbl>   <dbl>
##  1  21       6  160    110  3.9       21
##  2  21       6  160    110  3.9       21
##  3  22.8     4  108     93  3.85      23
##  4  21.4     6  258    110  3.08      21
##  5  18.7     8  360    175  3.15      19
##  6  18.1     6  225    105  2.76      18
##  7  14.3     8  360    245  3.21      14
##  8  24.4     4  147.    62  3.69      24
##  9  22.8     4  141.    95  3.92      23
## 10  19.2     6  168.   123  3.92      19
## # ... with 22 more rows
…
